
Control Variate Technique
n,V^_CV(N),|V_BS - V^_CV(N)|
10000.0000000000000000, 6.5836448209474652, 0.0330098376937054
20000.0000000000000000, 6.5837511831304276, 0.0329034755107429
40000.0000000000000000, 6.6167834395906295, 0.0001287809494590
80000.0000000000000000, 6.6236159209279490, 0.0069612622867785
160000.0000000000000000, 6.6239128681942718, 0.0072582095531013


